Introdução ao R com aplicações em biodiversidade e conservação
…
1.5 tibble

O tibble (tbl_sf) é uma versão aprimorada do data frame (data.frame). Ele é a classe aconselhada para que as funções do tidyverse funcionem melhor sobre conjuntos de dados tabulares importados para o R.

Geralmente, quando utilizamos funções tidyverse para importar dados para o R, é essa classe que os dados adquirem depois de importados. Além da importação de dados, podemos criar um tibble no R usando a função tibble::tibble(), semelhante ao uso da função data.frame(). Podemos ainda converter um data.frame para um tibble usando a função tibble::as_tibble(). Entretanto, em alguns momentos precisaremos da classe data.frame para algumas funções específicas, e podemos converter um tibble para data.frame usando a função tibble::as_data_frame().

Existem duas diferenças principais no uso do tibble e do data.frame: impressão e subconjunto. Objetos da classe tibbles possuem um método de impressão que mostra a contagem do número de linhas e colunas, e apenas as primeiras 10 linhas e todas as colunas que cabem na tela no console, além dos modos ou tipos das colunas. Dessa forma, cada coluna ou variável, pode ser do modo numbers (int ou dbl), character (chr), logical (lgl), factor (fctr), date + time (dttm) e date (date), além de outras inúmeras possibilidades.

Todas as funções deste pacote são listadas na página de referência do pacote.

# Tibble - impressão
aa_locais

## # A tibble: 1,163 x 25
##    id      reference_number species_number record sampled_habitat active_methods passive_methods
##    <chr>              <dbl>          <dbl> <chr>  <chr>           <chr>          <chr>          
##  1 amp1001             1001             19 ab     fo,ll           as             pt             
##  2 amp1002             1002             16 co     fo,la,ll        as             pt             
##  3 amp1003             1002             14 co     fo,la,ll        as             pt             
##  4 amp1004             1002             13 co     fo,la,ll        as             pt             
##  5 amp1005             1003             30 co     fo,ll,br        as             <NA>           
##  6 amp1006             1004             42 co     tp,pp,la,ll,is  <NA>           <NA>           
##  7 amp1007             1005             23 co     sp              as             <NA>           
##  8 amp1008             1005             19 co     sp,la,sw        as,sb,tr       <NA>           
##  9 amp1009             1005             13 ab     fo              <NA>           pt             
## 10 amp1010             1006              1 ab     fo              <NA>           pt             
## # … with 1,153 more rows, and 18 more variables: complementary_methods <chr>, period <chr>,
## #   month_start <dbl>, year_start <dbl>, month_finish <dbl>, year_finish <dbl>,
## #   effort_months <dbl>, country <chr>, state <chr>, state_abbreviation <chr>, municipality <chr>,
## #   site <chr>, latitude <dbl>, longitude <dbl>, coordinate_precision <chr>, altitude <dbl>,
## #   temperature <dbl>, precipitation <dbl>
…
# Carregar o pacote palmerpenguins
library(palmerpenguins)

# Ajuda dos dados
?penguins
?penguins_raw

1.7.2 glimpse()

Primeiramente, vamos observar os dados e utilizar a função tibble::glimpse() para ter uma noção geral.

# Visualizar os dados
penguins_raw

## # A tibble: 344 x 17
##    studyName `Sample Number` Species Region Island Stage `Individual ID` `Clutch Complet… `Date Egg`
##    <chr>               <dbl> <chr>   <chr>  <chr>  <chr> <chr>           <chr>            <date>    
##  1 PAL0708                 1 Adelie… Anvers Torge… Adul… N1A1            Yes              2007-11-11
##  2 PAL0708                 2 Adelie… Anvers Torge… Adul… N1A2            Yes              2007-11-11
##  3 PAL0708                 3 Adelie… Anvers Torge… Adul… N2A1            Yes              2007-11-16
##  4 PAL0708                 4 Adelie… Anvers Torge… Adul… N2A2            Yes              2007-11-16
##  5 PAL0708                 5 Adelie… Anvers Torge… Adul… N3A1            Yes              2007-11-16
##  6 PAL0708                 6 Adelie… Anvers Torge… Adul… N3A2            Yes              2007-11-16
##  7 PAL0708                 7 Adelie… Anvers Torge… Adul… N4A1            No               2007-11-15
##  8 PAL0708                 8 Adelie… Anvers Torge… Adul… N4A2            No               2007-11-15
##  9 PAL0708                 9 Adelie… Anvers Torge… Adul… N5A1            Yes              2007-11-09
## 10 PAL0708                10 Adelie… Anvers Torge… Adul… N5A2            Yes              2007-11-09
## # … with 334 more rows, and 8 more variables: Culmen Length (mm) <dbl>, Culmen Depth (mm) <dbl>,
## #   Flipper Length (mm) <dbl>, Body Mass (g) <dbl>, Sex <chr>, Delta 15 N (o/oo) <dbl>,
## #   Delta 13 C (o/oo) <dbl>, Comments <chr>
…
