Capítulo 15 Dados geoespaciais no R | Introdução ao R com aplicações em biodiversidade e conservação
…
bbox (bordas): coordenadas mínimas e máximas da longitude e latitude

informação do CRS: epsg ou proj4string indicando o CRS

tibble: tabela de atributos, com destaque para a coluna geom ou geometry que representa cada feição ou geometria

data(world)
world

## Simple feature collection with 177 features and 10 fields
## geometry type:  MULTIPOLYGON
## dimension:      XY
## bbox:           xmin: -180 ymin: -90 xmax: 180 ymax: 83.64513
## geographic CRS: WGS 84
## # A tibble: 177 x 11
##    iso_a2 name_long continent region_un subregion type  area_km2     pop lifeExp
##    <chr>  <chr>     <chr>     <chr>     <chr>     <chr>    <dbl>   <dbl>   <dbl>
##  1 FJ     Fiji      Oceania   Oceania   Melanesia Sove…   1.93e4  8.86e5    70.0
##  2 TZ     Tanzania  Africa    Africa    Eastern … Sove…   9.33e5  5.22e7    64.2
##  3 EH     Western … Africa    Africa    Northern… Inde…   9.63e4 NA         NA  
##  4 CA     Canada    North Am… Americas  Northern… Sove…   1.00e7  3.55e7    82.0
##  5 US     United S… North Am… Americas  Northern… Coun…   9.51e6  3.19e8    78.8
##  6 KZ     Kazakhst… Asia      Asia      Central … Sove…   2.73e6  1.73e7    71.6
##  7 UZ     Uzbekist… Asia      Asia      Central … Sove…   4.61e5  3.08e7    71.0
##  8 PG     Papua Ne… Oceania   Oceania   Melanesia Sove…   4.65e5  7.76e6    65.2
##  9 ID     Indonesia Asia      Asia      South-Ea… Sove…   1.82e6  2.55e8    68.9
## 10 AR     Argentina South Am… Americas  South Am… Sove…   2.78e6  4.30e7    76.3
## # … with 167 more rows, and 2 more variables: gdpPercap <dbl>,
## #   geom <MULTIPOLYGON [°]>
…
# download
download.file(url = "https://esajournals.onlinelibrary.wiley.com/action/downloadSupplement?doi=10.1002%2Fecy.2392&file=ecy2392-sup-0001-DataS1.zip",
              destfile = here::here("dados", "tabelas", "atlantic_amphibians.zip"), mode = "wb")

# unzip
unzip(zipfile = here::here("dados", "tabelas", "atlantic_amphibians.zip"),
      exdir = here::here("dados", "tabelas"))

Agora podemos importar a tabela de dados com a função `readr::read_csv()``.

# importar tabela de locais
aa_locais <- readr::read_csv(here::here("dados", "tabelas", "ATLANTIC_AMPHIBIANS_sites.csv"))
aa_locais

## # A tibble: 1,163 x 25
##    id      reference_number species_number record sampled_habitat active_methods
##    <chr>              <dbl>          <dbl> <chr>  <chr>           <chr>         
##  1 amp1001             1001             19 ab     fo,ll           as            
##  2 amp1002             1002             16 co     fo,la,ll        as            
##  3 amp1003             1002             14 co     fo,la,ll        as            
##  4 amp1004             1002             13 co     fo,la,ll        as            
##  5 amp1005             1003             30 co     fo,ll,br        as            
##  6 amp1006             1004             42 co     tp,pp,la,ll,is  <NA>          
##  7 amp1007             1005             23 co     sp              as            
##  8 amp1008             1005             19 co     sp,la,sw        as,sb,tr      
##  9 amp1009             1005             13 ab     fo              <NA>          
## 10 amp1010             1006              1 ab     fo              <NA>          
## # … with 1,153 more rows, and 19 more variables: passive_methods <chr>,
## #   complementary_methods <chr>, period <chr>, month_start <dbl>,
## #   year_start <dbl>, month_finish <dbl>, year_finish <dbl>,
## #   effort_months <dbl>, country <chr>, state <chr>, state_abbreviation <chr>,
## #   municipality <chr>, site <chr>, latitude <dbl>, longitude <dbl>,
## #   coordinate_precision <chr>, altitude <dbl>, temperature <dbl>,
## #   precipitation <dbl>
Por fim, podemos facilmente criar um objeto espacial do tipo MULTIPOINT utilizando a função sf::st_as_sf(). Podemos ver essas coordenadas plotadas no mapa simples da Figura 15.18.

É necessário antes se ater primeiramente ao argumento coords que deve indicar as colunas de longitude e latitude, nessa ordem; e também ao argumento crs para indicar o CRS correspondente dessas coordendas, que aqui sabemos se tratar de coordenadas geográficas e datum WGS84. Então podemos facilmente utilizar o código EPSG 4326. Entretanto, se as coordenadas estiverem em metros, por exemplo, teremos de nos ater à qual CRS as mesmas foram coletadas, ou seja, se forem coordenadas de GPS, é preciso saber como o GPS estava configurado (projeção e datum).

# convert para sf
aa_locais_ve <- aa_locais %>% 
  sf::st_as_sf(coords = c("longitude", "latitude"), crs = 4326)
aa_locais_ve

## Simple feature collection with 1163 features and 23 fields
## geometry type:  POINT
## dimension:      XY
## bbox:           xmin: -56.74194 ymin: -33.51083 xmax: -34.79667 ymax: -3.51525
## geographic CRS: WGS 84
## # A tibble: 1,163 x 24
##    id      reference_number species_number record sampled_habitat active_methods
##  * <chr>              <dbl>          <dbl> <chr>  <chr>           <chr>         
##  1 amp1001             1001             19 ab     fo,ll           as            
##  2 amp1002             1002             16 co     fo,la,ll        as            
##  3 amp1003             1002             14 co     fo,la,ll        as            
##  4 amp1004             1002             13 co     fo,la,ll        as            
##  5 amp1005             1003             30 co     fo,ll,br        as            
##  6 amp1006             1004             42 co     tp,pp,la,ll,is  <NA>          
##  7 amp1007             1005             23 co     sp              as            
##  8 amp1008             1005             19 co     sp,la,sw        as,sb,tr      
##  9 amp1009             1005             13 ab     fo              <NA>          
## 10 amp1010             1006              1 ab     fo              <NA>          
## # … with 1,153 more rows, and 18 more variables: passive_methods <chr>,
## #   complementary_methods <chr>, period <chr>, month_start <dbl>,
## #   year_start <dbl>, month_finish <dbl>, year_finish <dbl>,
## #   effort_months <dbl>, country <chr>, state <chr>, state_abbreviation <chr>,
## #   municipality <chr>, site <chr>, coordinate_precision <chr>, altitude <dbl>,
## #   temperature <dbl>, precipitation <dbl>, geometry <POINT [°]>
…
# importar locais
aa_locais_ve <- aa_locais %>% 
  dplyr::mutate(lon = longitude, lat = latitude) %>% 
  sf::st_as_sf(coords = c("lon", "lat"), crs = 4326)

# selecionar locais para o limite
aa_locais_ve

## Simple feature collection with 1163 features and 4 fields
## geometry type:  POINT
## dimension:      XY
## bbox:           xmin: -56.74194 ymin: -33.51083 xmax: -34.79667 ymax: -3.51525
## geographic CRS: WGS 84
## # A tibble: 1,163 x 5
##    id      longitude latitude species_number              geometry
##  * <chr>       <dbl>    <dbl>          <dbl>           <POINT [°]>
##  1 amp1001     -43.4    -8.68             19     (-43.42194 -8.68)
##  2 amp1002     -38.9    -3.55             16 (-38.85783 -3.545527)
##  3 amp1003     -38.9    -3.57             14 (-38.88869 -3.574194)
##  4 amp1004     -38.9    -3.52             13   (-38.9188 -3.51525)
##  5 amp1005     -38.9    -4.28             30 (-38.91083 -4.280556)
##  6 amp1006     -36.4    -9.23             42 (-36.42806 -9.229167)
##  7 amp1007     -40.9    -3.85             23 (-40.89444 -3.846111)
##  8 amp1008     -40.9    -3.83             19 (-40.91944 -3.825833)
##  9 amp1009     -40.9    -3.84             13   (-40.91028 -3.8375)
## 10 amp1010     -35.2    -6.14              1 (-35.22944 -6.136944)
## # … with 1,153 more rows
…
