Capítulo 5 Introdução à linguagem R | Introdução ao R com aplicações em biodiversidade e conservação
…
5.5.5 tibble

O tibble (tbl_sf) é uma versão aprimorada do data frame (data.frame). Ele é a classe aconselhada para que as funções do tidyverse funcionem melhor sobre conjuntos de dados tabulares importados para o R.

Geralmente, quando utilizamos funções tidyverse para importar dados para o R, é essa classe que esses dados adquirem depois de importados. Além da importação de dados, podemos criar um tibble no R usando a função tibble::tibble(), semelhante ao uso da função data.frame(). Podemos ainda converter um data.frame para um tibble usando a função tibble::as_tibble(). Entretanto, em alguns momentos precisaremos da classe data.frame para algumas funções específicas, e podemos converter um tibble para data.frame usa-se a função tibble::as_data_frame().

Existem duas diferenças principais no uso do tibble e do data.frame: impressão e subconjunto. Objetos da classe tibbles possuem um método de impressão que mostra a contagem do número de linhas e colunas, e apenas as primeiras 10 linhas e todas as colunas que cabem na tela no console, além dos modos ou tipos das colunas. Dessa forma, cada coluna ou variável, pode ser do modo numbers (int ou dbl), character (chr), logical (lgl), factor (fctr), date + time (dttm) date e (date), além de outras inúmeras possibilidades.

# tibble - impressao
aa_locais

## # A tibble: 1,163 x 25
##    id      reference_number species_number record sampled_habitat active_methods
##    <chr>              <dbl>          <dbl> <chr>  <chr>           <chr>         
##  1 amp1001             1001             19 ab     fo,ll           as            
##  2 amp1002             1002             16 co     fo,la,ll        as            
##  3 amp1003             1002             14 co     fo,la,ll        as            
##  4 amp1004             1002             13 co     fo,la,ll        as            
##  5 amp1005             1003             30 co     fo,ll,br        as            
##  6 amp1006             1004             42 co     tp,pp,la,ll,is  <NA>          
##  7 amp1007             1005             23 co     sp              as            
##  8 amp1008             1005             19 co     sp,la,sw        as,sb,tr      
##  9 amp1009             1005             13 ab     fo              <NA>          
## 10 amp1010             1006              1 ab     fo              <NA>          
## # … with 1,153 more rows, and 19 more variables: passive_methods <chr>,
## #   complementary_methods <chr>, period <chr>, month_start <dbl>,
## #   year_start <dbl>, month_finish <dbl>, year_finish <dbl>,
## #   effort_months <dbl>, country <chr>, state <chr>, state_abbreviation <chr>,
## #   municipality <chr>, site <chr>, latitude <dbl>, longitude <dbl>,
## #   coordinate_precision <chr>, altitude <dbl>, temperature <dbl>,
## #   precipitation <dbl>
…
O pacote palmerpenguins contém dois conjuntos de dados. Um é chamado de penguins e é uma versão simplificada dos dados brutos. O segundo conjunto de dados é penguins_raw e contém todas as variáveis e nomes originais baixados. Ambos os conjuntos de dados contêm dados para 344 pinguins, de três espécies diferentes, coletados em três ilhas no arquipélago de Palmer, na Antártica.

# carregar o pacote palmerpenguins
library(palmerpenguins)

# ajuda dos dados
?penguins
?penguins_raw

Primeiramente, vamos observar os dados e utilizar a função tidyr::glimpse() para ter uma noção geral.

# visualizar os dados
penguins_raw

## # A tibble: 344 x 17
##    studyName `Sample Number` Species       Region Island Stage   `Individual ID`
##    <chr>               <dbl> <chr>         <chr>  <chr>  <chr>   <chr>          
##  1 PAL0708                 1 Adelie Pengu… Anvers Torge… Adult,… N1A1           
##  2 PAL0708                 2 Adelie Pengu… Anvers Torge… Adult,… N1A2           
##  3 PAL0708                 3 Adelie Pengu… Anvers Torge… Adult,… N2A1           
##  4 PAL0708                 4 Adelie Pengu… Anvers Torge… Adult,… N2A2           
##  5 PAL0708                 5 Adelie Pengu… Anvers Torge… Adult,… N3A1           
##  6 PAL0708                 6 Adelie Pengu… Anvers Torge… Adult,… N3A2           
##  7 PAL0708                 7 Adelie Pengu… Anvers Torge… Adult,… N4A1           
##  8 PAL0708                 8 Adelie Pengu… Anvers Torge… Adult,… N4A2           
##  9 PAL0708                 9 Adelie Pengu… Anvers Torge… Adult,… N5A1           
## 10 PAL0708                10 Adelie Pengu… Anvers Torge… Adult,… N5A2           
## # … with 334 more rows, and 10 more variables: Clutch Completion <chr>,
## #   Date Egg <date>, Culmen Length (mm) <dbl>, Culmen Depth (mm) <dbl>,
## #   Flipper Length (mm) <dbl>, Body Mass (g) <dbl>, Sex <chr>,
## #   Delta 15 N (o/oo) <dbl>, Delta 13 C (o/oo) <dbl>, Comments <chr>
…
