Capítulo 16 {r tab-crs-r, echo=FALSE} # crs_data <- rgdal::make_EPSG() # # knitr::kable(tibble::tibble( # head(crs_data)), # caption = "Projeções disponíveis no R, com informações dos códigos epsg (no
…
# download
download.file(url = "https://esajournals.onlinelibrary.wiley.com/action/downloadSupplement?doi=10.1002%2Fecy.2392&file=ecy2392-sup-0001-DataS1.zip",
              destfile = here::here("dados", "tabelas", "atlantic_amphibians.zip"), mode = "wb")

# unzip
unzip(zipfile = here::here("dados", "tabelas", "atlantic_amphibians.zip"),
      exdir = here::here("dados", "tabelas"))

Agora iremos importar a tabela de dados para criar o objeto espacial.

# importar tabela
si <- readr::read_csv(here::here("dados", "tabelas", "ATLANTIC_AMPHIBIANS_sites.csv"))
si

## # A tibble: 1,163 x 25
##    id    reference_number species_number record sampled_habitat active_methods
##    <chr>            <dbl>          <dbl> <chr>  <chr>           <chr>         
##  1 amp1…             1001             19 ab     fo,ll           as            
##  2 amp1…             1002             16 co     fo,la,ll        as            
##  3 amp1…             1002             14 co     fo,la,ll        as            
##  4 amp1…             1002             13 co     fo,la,ll        as            
##  5 amp1…             1003             30 co     fo,ll,br        as            
##  6 amp1…             1004             42 co     tp,pp,la,ll,is  <NA>          
##  7 amp1…             1005             23 co     sp              as            
##  8 amp1…             1005             19 co     sp,la,sw        as,sb,tr      
##  9 amp1…             1005             13 ab     fo              <NA>          
## 10 amp1…             1006              1 ab     fo              <NA>          
## # … with 1,153 more rows, and 19 more variables: passive_methods <chr>,
## #   complementary_methods <chr>, period <chr>, month_start <dbl>,
## #   year_start <dbl>, month_finish <dbl>, year_finish <dbl>,
## #   effort_months <dbl>, country <chr>, state <chr>, state_abbreviation <chr>,
## #   municipality <chr>, site <chr>, latitude <dbl>, longitude <dbl>,
## #   coordinate_precision <chr>, altitude <dbl>, temperature <dbl>,
## #   precipitation <dbl>

Por fim, podemos facilmente criar um objeto espacial do tipo MULTIPOINT utilizando a função sf::st_as_sf(). Podemos ver essas coordenadas plotadas no mapa simples da Figura 16.6. É necessário antes se ater primeiramente ao argumento coords que deve indicar as colunas de longitude e latitude, nessa ordem; e também ao argumento crs para indicar o CRS correspondente dessas coordendas, que aqui sabemos que as coordenadas são geográficas e com Datum WGS84. Então podemos facilmente utilizar o código EPSG 4326 para tanto. Entretanto, se as coordenadas estiverem em metros por exemplo, teremos de nos ater à qual CRS as mesmas foram coletadas, ou seja, se são coordenadas de GPS, é preciso saber como o GPS estava configurado (Datum) e à qual zona UTM as coordenadas pertencem para definir o código EPSG correto.

# convert para sf
si_ve <- si %>% 
  sf::st_as_sf(coords = c("longitude", "latitude"), crs = 4326)
si_ve

## Simple feature collection with 1163 features and 23 fields
## geometry type:  POINT
## dimension:      XY
## bbox:           xmin: -56.74194 ymin: -33.51083 xmax: -34.79667 ymax: -3.51525
## geographic CRS: WGS 84
## # A tibble: 1,163 x 24
##    id    reference_number species_number record sampled_habitat active_methods
##  * <chr>            <dbl>          <dbl> <chr>  <chr>           <chr>         
##  1 amp1…             1001             19 ab     fo,ll           as            
##  2 amp1…             1002             16 co     fo,la,ll        as            
##  3 amp1…             1002             14 co     fo,la,ll        as            
##  4 amp1…             1002             13 co     fo,la,ll        as            
##  5 amp1…             1003             30 co     fo,ll,br        as            
##  6 amp1…             1004             42 co     tp,pp,la,ll,is  <NA>          
##  7 amp1…             1005             23 co     sp              as            
##  8 amp1…             1005             19 co     sp,la,sw        as,sb,tr      
##  9 amp1…             1005             13 ab     fo              <NA>          
## 10 amp1…             1006              1 ab     fo              <NA>          
## # … with 1,153 more rows, and 18 more variables: passive_methods <chr>,
## #   complementary_methods <chr>, period <chr>, month_start <dbl>,
## #   year_start <dbl>, month_finish <dbl>, year_finish <dbl>,
## #   effort_months <dbl>, country <chr>, state <chr>, state_abbreviation <chr>,
## #   municipality <chr>, site <chr>, coordinate_precision <chr>, altitude <dbl>,
## #   temperature <dbl>, precipitation <dbl>, geometry <POINT [°]>
…
